<?xml version="1.0" encoding="utf-8"?>
<!-- Generator: Adobe Illustrator 13.0.1, SVG Export Plug-In . SVG Version: 6.00 Build 14948)  -->
<!DOCTYPE svg PUBLIC "-//W3C//DTD SVG 1.1//EN" "http://www.w3.org/Graphics/SVG/1.1/DTD/svg11.dtd">
<svg version="1.1" id="Layer_1" xmlns="http://www.w3.org/2000/svg" xmlns:xlink="http://www.w3.org/1999/xlink" x="0px" y="0px"
	 width="164.625px" height="66.889px" viewBox="0 0 164.625 66.889" enable-background="new 0 0 164.625 66.889"
	 xml:space="preserve">
<g>
	<defs>
		<rect id="SVGID_1_" width="164.624" height="66.888"/>
	</defs>
	<clipPath id="SVGID_2_">
		<use xlink:href="#SVGID_1_"  overflow="visible"/>
	</clipPath>
	
		<path clip-path="url(#SVGID_2_)" fill="none" stroke="#DB4A9A" stroke-width="5" stroke-linecap="round" stroke-linejoin="round" stroke-miterlimit="10" d="
		M31.65,19.375c0-8.05-6.525-14.575-14.575-14.575C9.025,4.8,2.5,11.325,2.5,19.375c0,8.05,6.525,14.575,14.575,14.575
		l145.049,0.228"/>
	
		<path clip-path="url(#SVGID_2_)" fill="none" stroke="#1BB5E6" stroke-width="5" stroke-linecap="round" stroke-linejoin="round" stroke-miterlimit="10" d="
		M62.02,18.221c0-4.114-3.336-7.45-7.45-7.45c-4.114,0-7.449,3.336-7.449,7.45c0,4.114,3.335,7.449,7.449,7.449l91.976,0.117"/>
	
		<path clip-path="url(#SVGID_2_)" fill="none" stroke="#BFC9E7" stroke-width="5" stroke-linecap="round" stroke-linejoin="round" stroke-miterlimit="10" d="
		M94.17,9.95c0-4.114-3.335-7.45-7.449-7.45c-4.114,0-7.45,3.336-7.45,7.45c0,4.114,3.336,7.45,7.45,7.45l28.403,0.116"/>
	
		<path clip-path="url(#SVGID_2_)" fill="none" stroke="#1BB5E6" stroke-width="5" stroke-linecap="round" stroke-linejoin="round" stroke-miterlimit="10" d="
		M49.596,53.644c0,5.934-4.81,10.745-10.744,10.745s-10.744-4.812-10.744-10.745c0-5.935,4.81-10.744,10.744-10.744l63.772-0.168"/>
</g>
</svg>
