<?xml version="1.0" encoding="utf-8"?>
<!-- Generator: Adobe Illustrator 13.0.1, SVG Export Plug-In . SVG Version: 6.00 Build 14948)  -->
<!DOCTYPE svg PUBLIC "-//W3C//DTD SVG 1.1//EN" "http://www.w3.org/Graphics/SVG/1.1/DTD/svg11.dtd">
<svg version="1.1" id="Layer_1" xmlns="http://www.w3.org/2000/svg" xmlns:xlink="http://www.w3.org/1999/xlink" x="0px" y="0px"
	 width="176.284px" height="106.455px" viewBox="0 0 176.284 106.455" enable-background="new 0 0 176.284 106.455"
	 xml:space="preserve">
<g>
	<defs>
		<rect id="SVGID_1_" x="0" width="176.283" height="106.455"/>
	</defs>
	<clipPath id="SVGID_2_">
		<use xlink:href="#SVGID_1_"  overflow="visible"/>
	</clipPath>
	<path clip-path="url(#SVGID_2_)" fill="#47C2FB" d="M48.033,44.489c0.845-0.523,1.772-0.922,2.761-1.176l-8.895-20.52
		c-0.33-0.759-1.212-1.109-1.973-0.78c-0.76,0.33-1.109,1.213-0.78,1.973L48.033,44.489z"/>
	<path clip-path="url(#SVGID_2_)" fill="#47C2FB" d="M58.258,44.322l8.213-20.782c0.305-0.771-0.073-1.642-0.843-1.947
		c-0.772-0.302-1.642,0.074-1.947,0.844l-8.219,20.797C56.459,43.456,57.398,43.827,58.258,44.322"/>
	<path clip-path="url(#SVGID_2_)" fill="#47C2FB" d="M62.905,50.294l20.414-8.849c0.76-0.33,1.109-1.213,0.78-1.973
		c-0.33-0.76-1.213-1.11-1.973-0.78l-20.454,8.866C62.214,48.393,62.631,49.313,62.905,50.294"/>
	<path clip-path="url(#SVGID_2_)" fill="#47C2FB" d="M22.892,42.431l20.689,8.177c0.243-0.991,0.632-1.923,1.145-2.774
		l-20.731-8.193c-0.771-0.304-1.642,0.073-1.947,0.844C21.743,41.254,22.121,42.125,22.892,42.431"/>
	<path clip-path="url(#SVGID_2_)" fill="#47C2FB" d="M43.587,55.396l-20.34,8.816c-0.76,0.329-1.109,1.214-0.78,1.974
		c0.245,0.565,0.797,0.904,1.377,0.904c0.199,0,0.402-0.04,0.596-0.124l20.3-8.8C44.224,57.317,43.832,56.388,43.587,55.396"/>
	<path clip-path="url(#SVGID_2_)" fill="#47C2FB" d="M83.675,63.228L63.061,55.08c-0.213,1-0.577,1.941-1.064,2.806l20.575,8.132
		c0.182,0.071,0.368,0.105,0.551,0.105c0.598,0,1.163-0.359,1.396-0.949C84.823,64.403,84.446,63.532,83.675,63.228"/>
	<path clip-path="url(#SVGID_2_)" fill="#47C2FB" d="M48.207,61.594l-8.112,20.524c-0.305,0.771,0.073,1.642,0.844,1.946
		c0.181,0.071,0.367,0.105,0.551,0.105c0.597,0,1.162-0.359,1.395-0.949l8.105-20.507C49.996,62.48,49.062,62.099,48.207,61.594"/>
	<path clip-path="url(#SVGID_2_)" fill="#47C2FB" d="M58.643,61.422c-0.839,0.534-1.762,0.943-2.746,1.21l8.771,20.233
		c0.246,0.566,0.797,0.904,1.377,0.904c0.199,0,0.402-0.04,0.596-0.124c0.76-0.33,1.109-1.213,0.78-1.974L58.643,61.422z"/>
	
		<line clip-path="url(#SVGID_2_)" fill="none" stroke="#DB4A9A" stroke-width="5" stroke-linecap="round" stroke-linejoin="round" stroke-miterlimit="10" x1="173.783" y1="53.25" x2="75.283" y2="53.25"/>
	
		<line clip-path="url(#SVGID_2_)" fill="none" stroke="#DB4A9A" stroke-width="5" stroke-linecap="round" stroke-linejoin="round" stroke-miterlimit="10" x1="76.283" y1="53.25" x2="30.283" y2="53.25"/>
	
		<line clip-path="url(#SVGID_2_)" fill="none" stroke="#DB4A9A" stroke-width="5" stroke-linecap="round" stroke-linejoin="round" stroke-miterlimit="10" x1="53.283" y1="30.25" x2="53.283" y2="76.25"/>
	
		<line clip-path="url(#SVGID_2_)" fill="none" stroke="#DB4A9A" stroke-width="5" stroke-linecap="round" stroke-linejoin="round" stroke-miterlimit="10" x1="69.547" y1="36.986" x2="37.02" y2="69.513"/>
	
		<line clip-path="url(#SVGID_2_)" fill="none" stroke="#DB4A9A" stroke-width="5" stroke-linecap="round" stroke-linejoin="round" stroke-miterlimit="10" x1="37.019" y1="36.986" x2="69.546" y2="69.513"/>
	<path clip-path="url(#SVGID_2_)" fill="#BFC9E7" d="M20.287,54.624c-0.034-0.824-0.039-1.651-0.01-2.481L1.236,52.232
		C0.55,52.235-0.004,52.796,0,53.479c0.004,0.686,0.562,1.239,1.247,1.236L20.287,54.624z"/>
	<path clip-path="url(#SVGID_2_)" fill="#BFC9E7" d="M30.69,29.155L17.167,15.759c-0.487-0.482-1.272-0.478-1.755,0.009
		c-0.481,0.487-0.478,1.273,0.008,1.755l13.529,13.401C29.51,30.312,30.088,29.719,30.69,29.155"/>
	<path clip-path="url(#SVGID_2_)" fill="#BFC9E7" d="M17.523,91.035l13.349-13.477c-0.609-0.563-1.202-1.142-1.763-1.746
		L15.76,89.288c-0.482,0.486-0.478,1.272,0.008,1.755C16.255,91.525,17.042,91.521,17.523,91.035"/>
	<path clip-path="url(#SVGID_2_)" fill="#BFC9E7" d="M52.144,86.347l0.089,18.873c0.004,0.686,0.562,1.238,1.247,1.234
		c0.524-0.003,0.97-0.328,1.15-0.787c0.056-0.143,0.086-0.298,0.085-0.459l-0.089-18.864C53.801,86.376,52.973,86.377,52.144,86.347
		"/>
	<path clip-path="url(#SVGID_2_)" fill="#BFC9E7" d="M88.933,15.42l-13.28,13.407c0.613,0.56,1.205,1.138,1.771,1.739l13.272-13.399
		c0.123-0.124,0.215-0.268,0.273-0.42c0.175-0.447,0.081-0.975-0.282-1.335C90.201,14.93,89.415,14.934,88.933,15.42"/>
	<path clip-path="url(#SVGID_2_)" fill="#BFC9E7" d="M52.977,0c-0.686,0.004-1.24,0.562-1.235,1.247l0.089,18.974
		c0.825-0.038,1.652-0.051,2.482-0.028L54.223,1.235C54.22,0.55,53.663-0.003,52.977,0"/>
	<path clip-path="url(#SVGID_2_)" fill="#BFC9E7" d="M75.937,77.47l13.352,13.226c0.487,0.482,1.273,0.479,1.755-0.008
		c0.122-0.124,0.214-0.268,0.273-0.42c0.176-0.447,0.081-0.976-0.281-1.335L77.682,75.704C77.119,76.314,76.541,76.907,75.937,77.47
		"/>
	<path clip-path="url(#SVGID_2_)" fill="#DB4A9A" stroke="#DB4A9A" d="M61.283,52.829c0-4.418-3.582-8-8-8c-4.418,0-8,3.582-8,8
		c0,4.419,3.582,8,8,8C57.701,60.829,61.283,57.248,61.283,52.829"/>
</g>
</svg>
